<?xml version="1.0" encoding="UTF-8" standalone="no"?>
<svg
   xmlns:dc="http://purl.org/dc/elements/1.1/"
   xmlns:cc="http://creativecommons.org/ns#"
   xmlns:rdf="http://www.w3.org/1999/02/22-rdf-syntax-ns#"
   xmlns:svg="http://www.w3.org/2000/svg"
   xmlns="http://www.w3.org/2000/svg"
   xmlns:sodipodi="http://sodipodi.sourceforge.net/DTD/sodipodi-0.dtd"
   xmlns:inkscape="http://www.inkscape.org/namespaces/inkscape"
   id="svg222"
   version="1.1"
   zoomAndPan="magnify"
   preserveAspectRatio="xMidYMid"
   viewBox="0 0 1024 144"
   sodipodi:docname="circuit.svg"
   inkscape:version="0.92.3 (2405546, 2018-03-11)"
   width="270.93332mm"
   height="38.099998mm">
  <sodipodi:namedview
     pagecolor="#ffffff"
     bordercolor="#666666"
     borderopacity="1"
     objecttolerance="10"
     gridtolerance="10"
     guidetolerance="10"
     inkscape:pageopacity="1"
     inkscape:pageshadow="2"
     inkscape:window-width="868"
     inkscape:window-height="480"
     id="namedview115"
     showgrid="false"
     inkscape:pagecheckerboard="false"
     inkscape:zoom="0.43359375"
     inkscape:cx="512"
     inkscape:cy="72"
     inkscape:window-x="2282"
     inkscape:window-y="111"
     inkscape:window-maximized="0"
     inkscape:current-layer="svg222"
     units="mm"
     showborder="true"
     borderlayer="false" />
  <metadata
     id="metadata228">
    <rdf:RDF>
      <cc:Work
         rdf:about="">
        <dc:format>image/svg+xml</dc:format>
        <dc:type
           rdf:resource="http://purl.org/dc/dcmitype/StillImage" />
        <dc:title></dc:title>
      </cc:Work>
    </rdf:RDF>
  </metadata>
  <defs
     id="defs226" />
  <line
     id="line2"
     y2="21.2052"
     x2="366.13901"
     y1="21.2052"
     x1="67.221603"
     style="stroke:#0000ff;stroke-width:0.07" />
  <line
     id="line4"
     y2="134.851"
     x2="16.864901"
     y1="121.919"
     x1="16.864901"
     style="stroke:#0000ff;stroke-width:0.07" />
  <line
     id="line6"
     y2="121.919"
     x2="973.64301"
     y1="121.919"
     x1="67.221603"
     style="stroke:#0000ff;stroke-width:0.07" />
  <line
     id="line8"
     y2="51.4193"
     x2="366.13901"
     y1="51.4193"
     x1="67.221603"
     style="stroke:#0000ff;stroke-width:0.07" />
  <line
     id="line10"
     y2="134.851"
     x2="47.078899"
     y1="121.919"
     x1="47.078899"
     style="stroke:#0000ff;stroke-width:0.07" />
  <line
     id="line12"
     y2="91.704697"
     x2="973.64301"
     y1="91.704697"
     x1="67.221603"
     style="stroke:#0000ff;stroke-width:0.07" />
  <path
     id="path14"
     d="M 67.22,121.92 A 50.36,50.36 90 0 1 16.86,71.56"
     inkscape:connector-curvature="0"
     style="fill:none;stroke:#0000ff;stroke-width:0.07" />
  <path
     id="path16"
     d="M 16.86,71.56 A 50.36,50.36 -180 0 1 67.22,21.21"
     inkscape:connector-curvature="0"
     style="fill:none;stroke:#0000ff;stroke-width:0.07" />
  <path
     id="path18"
     d="M 67.22,91.7 A 20.14,20.14 90 0 1 47.08,71.56"
     inkscape:connector-curvature="0"
     style="fill:none;stroke:#0000ff;stroke-width:0.07" />
  <path
     id="path20"
     d="M 47.08,71.56 A 20.14,20.14 -180 0 1 67.22,51.42"
     inkscape:connector-curvature="0"
     style="fill:none;stroke:#0000ff;stroke-width:0.07" />
  <line
     id="line22"
     y2="136.258"
     x2="1024"
     y1="121.919"
     x1="1024"
     style="stroke:#0000ff;stroke-width:0.07" />
  <line
     id="line24"
     y2="136.258"
     x2="993.78601"
     y1="121.919"
     x1="993.78601"
     style="stroke:#0000ff;stroke-width:0.07" />
  <path
     id="path26"
     d="M 973.64,121.92 A 50.36,50.36 90 0 0 1024,71.56"
     inkscape:connector-curvature="0"
     style="fill:none;stroke:#0000ff;stroke-width:0.07" />
  <path
     id="path28"
     d="M 1024,71.56 A 50.36,50.36 0 0 0 973.64,21.21"
     inkscape:connector-curvature="0"
     style="fill:none;stroke:#0000ff;stroke-width:0.07" />
  <path
     id="path30"
     d="M 973.64,91.7 A 20.14,20.14 90 0 0 993.79,71.56"
     inkscape:connector-curvature="0"
     style="fill:none;stroke:#0000ff;stroke-width:0.07" />
  <path
     id="path32"
     d="M 993.79,71.56 A 20.14,20.14 0 0 0 973.64,51.42"
     inkscape:connector-curvature="0"
     style="fill:none;stroke:#0000ff;stroke-width:0.07" />
  <line
     id="line34"
     y2="121.919"
     x2="184.855"
     y1="91.704697"
     x1="184.855"
     style="stroke:#0000ff;stroke-width:0.07" />
  <text
     id="text36"
     font-size="4.02854"
     y="135.00301"
     x="174.76601"
     style="font-size:4.02854013px;font-family:INTL_ISO_EQUAL;fill:#0000ff;stroke:#0000ff;stroke-width:0">Arrivée</text>
  <line
     id="line38"
     y2="5.6843399e-15"
     x2="520.43201"
     y1="21.2052"
     x1="520.43201"
     style="stroke:#0000ff;stroke-width:0.07" />
  <line
     id="line40"
     y2="5.6843399e-15"
     x2="443.28601"
     y1="21.2052"
     x1="443.28601"
     style="stroke:#0000ff;stroke-width:0.07" />
  <line
     id="line42"
     y2="5.6843399e-15"
     x2="366.13901"
     y1="21.2052"
     x1="366.13901"
     style="stroke:#0000ff;stroke-width:0.07" />
  <line
     id="line44"
     y2="5.6843399e-15"
     x2="597.57898"
     y1="21.2052"
     x1="597.57898"
     style="stroke:#0000ff;stroke-width:0.07" />
  <line
     id="line46"
     y2="5.6843399e-15"
     x2="674.72601"
     y1="21.2052"
     x1="674.72601"
     style="stroke:#0000ff;stroke-width:0.07" />
  <line
     id="line48"
     y2="5.6843399e-15"
     x2="1008.89"
     y1="21.2052"
     x1="1008.89"
     style="stroke:#0000ff;stroke-width:0.07" />
  <line
     id="line50"
     y2="5.6843399e-15"
     x2="31.971901"
     y1="21.2052"
     x1="31.971901"
     style="stroke:#0000ff;stroke-width:0.07" />
  <path
     id="path52"
     d="m 973.64,106.81 a 35.25,35.25 90 0 0 35.25,-35.25"
     inkscape:connector-curvature="0"
     style="fill:none;stroke:#969696;stroke-width:0.07" />
  <path
     id="path54"
     d="M 1008.89,71.56 A 35.25,35.25 0 0 0 973.64,36.31"
     inkscape:connector-curvature="0"
     style="fill:none;stroke:#969696;stroke-width:0.07" />
  <line
     id="line56"
     y2="106.812"
     x2="973.64301"
     y1="106.812"
     x1="67.221603"
     style="stroke:#969696;stroke-width:0.07" />
  <path
     id="path58"
     d="M 67.22,106.81 A 35.25,35.25 90 0 1 31.97,71.56"
     inkscape:connector-curvature="0"
     style="fill:none;stroke:#969696;stroke-width:0.07" />
  <path
     id="path60"
     d="M 31.97,71.56 A 35.25,35.25 -180 0 1 67.22,36.31"
     inkscape:connector-curvature="0"
     style="fill:none;stroke:#969696;stroke-width:0.07" />
  <line
     id="line62"
     y2="36.312199"
     x2="973.64301"
     y1="36.312199"
     x1="674.72601"
     style="stroke:#969696;stroke-width:0.07" />
  <line
     id="line64"
     y2="36.312199"
     x2="366.13901"
     y1="36.312199"
     x1="67.221603"
     style="stroke:#969696;stroke-width:0.07" />
  <line
     id="line66"
     y2="21.2052"
     x2="973.64301"
     y1="21.2052"
     x1="674.72601"
     style="stroke:#0000ff;stroke-width:0.07" />
  <path
     id="path68"
     d="M 387.78,62.97 A 86.02,86.02 130.35 0 0 500.53,61.78"
     inkscape:connector-curvature="0"
     style="fill:none;stroke:#006900;stroke-width:0.07" />
  <path
     id="path70"
     d="m 397.56,51.46 a 70.91,70.91 130.35 0 0 92.95,-0.99"
     inkscape:connector-curvature="0"
     style="fill:none;stroke:#969696;stroke-width:0.07" />
  <path
     id="path72"
     d="m 407.34,39.94 a 55.8,55.8 130.35 0 0 73.15,-0.77"
     inkscape:connector-curvature="0"
     style="fill:none;stroke:#006900;stroke-width:0.07" />
  <path
     id="path74"
     d="M 541.6,62.97 A 86.02,86.02 130.35 0 0 654.36,61.78"
     inkscape:connector-curvature="0"
     style="fill:none;stroke:#006900;stroke-width:0.07" />
  <path
     id="path76"
     d="m 561.48,39.94 a 55.8,55.8 130.35 0 0 73.15,-0.77"
     inkscape:connector-curvature="0"
     style="fill:none;stroke:#006900;stroke-width:0.07" />
  <path
     id="path78"
     d="M 551.54,51.46 A 70.91,70.91 130.35 0 0 644.5,50.47"
     inkscape:connector-curvature="0"
     style="fill:none;stroke:#969696;stroke-width:0.07" />
  <path
     id="path80"
     d="M 482.76,36.86 A 54.43,54.43 -134.34 0 1 557.84,35.9"
     inkscape:connector-curvature="0"
     style="fill:none;stroke:#006900;stroke-width:0.07" />
  <path
     id="path82"
     d="m 493.32,47.66 a 39.32,39.32 -134.34 0 1 54.24,-0.69"
     inkscape:connector-curvature="0"
     style="fill:none;stroke:#969696;stroke-width:0.07" />
  <path
     id="path84"
     d="m 503.88,58.46 a 24.21,24.21 -134.34 0 1 33.4,-0.42"
     inkscape:connector-curvature="0"
     style="fill:none;stroke:#006900;stroke-width:0.07" />
  <path
     id="path86"
     d="m 366.14,21.21 a 54.25,54.25 -90.36 0 1 40.12,17.35"
     inkscape:connector-curvature="0"
     style="fill:none;stroke:#006900;stroke-width:0.07" />
  <path
     id="path88"
     d="m 366.24,36.31 a 39.14,39.14 -90.36 0 1 28.94,12.52"
     inkscape:connector-curvature="0"
     style="fill:none;stroke:#969696;stroke-width:0.07" />
  <path
     id="path90"
     d="m 366.33,51.42 a 24.04,24.04 -90.36 0 1 17.78,7.69"
     inkscape:connector-curvature="0"
     style="fill:none;stroke:#006900;stroke-width:0.07" />
  <path
     id="path92"
     d="M 637.17,36.8 A 53.6,53.6 -134.84 0 1 674.73,21.21"
     inkscape:connector-curvature="0"
     style="fill:none;stroke:#006900;stroke-width:0.07" />
  <path
     id="path94"
     d="m 647.82,47.51 a 38.49,38.49 -134.84 0 1 26.97,-11.2"
     inkscape:connector-curvature="0"
     style="fill:none;stroke:#969696;stroke-width:0.07" />
  <path
     id="path96"
     d="m 658.48,58.22 a 23.39,23.39 -134.84 0 1 16.38,-6.8"
     inkscape:connector-curvature="0"
     style="fill:none;stroke:#006900;stroke-width:0.07" />
  <line
     id="line98"
     y2="51.4193"
     x2="973.64301"
     y1="51.4193"
     x1="674.72601"
     style="stroke:#0000ff;stroke-width:0.07" />
  <line
     id="line100"
     y2="38.558399"
     x2="406.25601"
     y1="39.943802"
     x1="407.34"
     style="stroke:#006900;stroke-width:0.07" />
  <line
     id="line102"
     y2="62.969898"
     x2="387.77802"
     y1="59.107498"
     x1="384.10501"
     style="stroke:#006900;stroke-width:0.07" />
  <line
     id="line104"
     y2="51.456799"
     x2="397.55899"
     y1="48.833"
     x1="395.17999"
     style="stroke:#969696;stroke-width:0.07" />
  <line
     id="line106"
     y2="36.855301"
     x2="482.76001"
     y1="39.170601"
     x1="480.48901"
     style="stroke:#006900;stroke-width:0.07" />
  <line
     id="line108"
     y2="47.659302"
     x2="493.319"
     y1="50.4743"
     x1="490.51199"
     style="stroke:#969696;stroke-width:0.07" />
  <line
     id="line110"
     y2="58.463299"
     x2="503.87799"
     y1="61.778"
     x1="500.534"
     style="stroke:#006900;stroke-width:0.07" />
  <polygon
     id="polygon112"
     points="327.81,39.02 327.81,44.58 316.49,44.58 316.49,39.02 "
     style="fill:none;stroke:#ff0000;stroke-width:0.07" />
  <line
     id="line114"
     y2="39.943802"
     x2="561.48401"
     y1="35.897999"
     x1="557.84198"
     style="stroke:#006900;stroke-width:0.07" />
  <line
     id="line116"
     y2="51.456799"
     x2="551.54303"
     y1="46.967701"
     x1="547.56201"
     style="stroke:#969696;stroke-width:0.07" />
  <line
     id="line118"
     y2="62.969898"
     x2="541.60199"
     y1="58.037399"
     x1="537.28198"
     style="stroke:#006900;stroke-width:0.07" />
  <line
     id="line120"
     y2="36.799"
     x2="637.16998"
     y1="39.170601"
     x1="634.633"
     style="stroke:#006900;stroke-width:0.07" />
  <line
     id="line122"
     y2="47.510899"
     x2="647.823"
     y1="50.4743"
     x1="644.49597"
     style="stroke:#969696;stroke-width:0.07" />
  <line
     id="line124"
     y2="58.222698"
     x2="658.47498"
     y1="61.778"
     x1="654.35797"
     style="stroke:#006900;stroke-width:0.07" />
  <text
     id="text126"
     font-size="4.02854"
     y="10.8749"
     x="192.50999"
     style="font-size:4.02854013px;font-family:INTL_ISO_EQUAL;fill:#ff0000;stroke:#ff0000;stroke-width:0">16.59</text>
  <line
     id="line128"
     y2="12.8892"
     x2="366.13901"
     y1="12.8892"
     x1="31.971901"
     style="stroke:#ff0000;stroke-width:0.07" />
  <polyline
     id="polyline130"
     points="36.00,13.90,31.97,12.89,36.00,11.88"
     style="fill:none;stroke:#ff0000;stroke-width:0.07" />
  <polyline
     id="polyline132"
     points="362.11,11.88,366.14,12.89,362.11,13.90"
     style="fill:none;stroke:#ff0000;stroke-width:0.07" />
  <line
     id="line134"
     y2="10.8749"
     x2="31.971901"
     y1="19.190901"
     x1="31.971901"
     style="stroke:#ff0000;stroke-width:0.07" />
  <line
     id="line136"
     y2="10.8749"
     x2="366.13901"
     y1="19.190901"
     x1="366.13901"
     style="stroke:#ff0000;stroke-width:0.07" />
  <text
     id="text138"
     font-size="4.02854"
     y="10.8749"
     x="399.577"
     style="font-size:4.02854013px;font-family:INTL_ISO_EQUAL;fill:#ff0000;stroke:#ff0000;stroke-width:0">3.83</text>
  <line
     id="line140"
     y2="12.8892"
     x2="443.28601"
     y1="12.8892"
     x1="366.13901"
     style="stroke:#ff0000;stroke-width:0.07" />
  <polyline
     id="polyline142"
     points="370.17,13.90,366.14,12.89,370.17,11.88"
     style="fill:none;stroke:#ff0000;stroke-width:0.07" />
  <polyline
     id="polyline144"
     points="439.26,11.88,443.29,12.89,439.26,13.90"
     style="fill:none;stroke:#ff0000;stroke-width:0.07" />
  <line
     id="line146"
     y2="10.8749"
     x2="443.28601"
     y1="19.190901"
     x1="443.28601"
     style="stroke:#ff0000;stroke-width:0.07" />
  <text
     id="text148"
     font-size="4.02854"
     y="10.8749"
     x="476.72299"
     style="font-size:4.02854013px;font-family:INTL_ISO_EQUAL;fill:#ff0000;stroke:#ff0000;stroke-width:0">3.83</text>
  <line
     id="line150"
     y2="12.8892"
     x2="520.43201"
     y1="12.8892"
     x1="443.28601"
     style="stroke:#ff0000;stroke-width:0.07" />
  <polyline
     id="polyline152"
     points="447.31,13.90,443.29,12.89,447.31,11.88"
     style="fill:none;stroke:#ff0000;stroke-width:0.07" />
  <polyline
     id="polyline154"
     points="516.40,11.88,520.43,12.89,516.40,13.90"
     style="fill:none;stroke:#ff0000;stroke-width:0.07" />
  <line
     id="line156"
     y2="10.8749"
     x2="520.43201"
     y1="19.190901"
     x1="520.43201"
     style="stroke:#ff0000;stroke-width:0.07" />
  <text
     id="text158"
     font-size="4.02854"
     y="10.8749"
     x="553.87"
     style="font-size:4.02854013px;font-family:INTL_ISO_EQUAL;fill:#ff0000;stroke:#ff0000;stroke-width:0">3.83</text>
  <line
     id="line160"
     y2="12.8892"
     x2="597.57898"
     y1="12.8892"
     x1="520.43201"
     style="stroke:#ff0000;stroke-width:0.07" />
  <polyline
     id="polyline162"
     points="524.46,13.90,520.43,12.89,524.46,11.88"
     style="fill:none;stroke:#ff0000;stroke-width:0.07" />
  <polyline
     id="polyline164"
     points="593.55,11.88,597.58,12.89,593.55,13.90"
     style="fill:none;stroke:#ff0000;stroke-width:0.07" />
  <line
     id="line166"
     y2="10.8749"
     x2="597.57898"
     y1="19.190901"
     x1="597.57898"
     style="stroke:#ff0000;stroke-width:0.07" />
  <text
     id="text168"
     font-size="4.02854"
     y="10.8749"
     x="631.01599"
     style="font-size:4.02854013px;font-family:INTL_ISO_EQUAL;fill:#ff0000;stroke:#ff0000;stroke-width:0">3.83</text>
  <line
     id="line170"
     y2="12.8892"
     x2="674.72601"
     y1="12.8892"
     x1="597.57898"
     style="stroke:#ff0000;stroke-width:0.07" />
  <polyline
     id="polyline172"
     points="601.61,13.90,597.58,12.89,601.61,11.88"
     style="fill:none;stroke:#ff0000;stroke-width:0.07" />
  <polyline
     id="polyline174"
     points="670.70,11.88,674.73,12.89,670.70,13.90"
     style="fill:none;stroke:#ff0000;stroke-width:0.07" />
  <line
     id="line176"
     y2="10.8749"
     x2="674.72601"
     y1="19.190901"
     x1="674.72601"
     style="stroke:#ff0000;stroke-width:0.07" />
  <text
     id="text178"
     font-size="4.02854"
     y="10.8749"
     x="835.263"
     style="font-size:4.02854013px;font-family:INTL_ISO_EQUAL;fill:#ff0000;stroke:#ff0000;stroke-width:0">16.59</text>
  <line
     id="line180"
     y2="12.8892"
     x2="1008.89"
     y1="12.8892"
     x1="674.72601"
     style="stroke:#ff0000;stroke-width:0.07" />
  <polyline
     id="polyline182"
     points="678.75,13.90,674.73,12.89,678.75,11.88"
     style="fill:none;stroke:#ff0000;stroke-width:0.07" />
  <polyline
     id="polyline184"
     points="1004.86,11.88,1008.89,12.89,1004.86,13.90"
     style="fill:none;stroke:#ff0000;stroke-width:0.07" />
  <line
     id="line186"
     y2="10.8749"
     x2="1008.89"
     y1="19.190901"
     x1="1008.89"
     style="stroke:#ff0000;stroke-width:0.07" />
  <text
     id="text188"
     font-size="4.02854"
     transform="rotate(-90,39.305,33.265)"
     style="font-size:4.02854013px;font-family:INTL_ISO_EQUAL;fill:#ff0000;stroke:#ff0000;stroke-width:0">5</text>
  <line
     id="line190"
     y2="121.919"
     x2="8.0570803"
     y1="21.2052"
     x1="8.0570803"
     style="stroke:#ff0000;stroke-width:0.07" />
  <polyline
     id="polyline192"
     points="7.05,25.23,8.06,21.21,9.06,25.23"
     style="fill:none;stroke:#ff0000;stroke-width:0.07" />
  <polyline
     id="polyline194"
     points="9.06,117.89,8.06,121.92,7.05,117.89"
     style="fill:none;stroke:#ff0000;stroke-width:0.07" />
  <line
     id="line196"
     y2="21.2052"
     x2="6.04281"
     y1="21.2052"
     x1="29.9576"
     style="stroke:#ff0000;stroke-width:0.07" />
  <line
     id="line198"
     y2="121.919"
     x2="6.04281"
     y1="121.919"
     x1="14.8506"
     style="stroke:#ff0000;stroke-width:0.07" />
  <text
     id="text200"
     font-size="4.02854"
     y="140.343"
     x="545.12903"
     style="font-size:4.02854013px;font-family:INTL_ISO_EQUAL;fill:#ff0000;stroke:#ff0000;stroke-width:0">50</text>
  <line
     id="line202"
     y2="142.358"
     x2="1024"
     y1="142.358"
     x1="16.864901"
     style="stroke:#ff0000;stroke-width:0.07" />
  <polyline
     id="polyline204"
     points="20.89,143.36,16.86,142.36,20.89,141.35"
     style="fill:none;stroke:#ff0000;stroke-width:0.07" />
  <polyline
     id="polyline206"
     points="1019.97,141.35,1024.00,142.36,1019.97,143.36"
     style="fill:none;stroke:#ff0000;stroke-width:0.07" />
  <line
     id="line208"
     y2="144.37199"
     x2="16.864901"
     y1="123.933"
     x1="16.864901"
     style="stroke:#ff0000;stroke-width:0.07" />
  <line
     id="line210"
     y2="144.37199"
     x2="1024"
     y1="123.933"
     x1="1024"
     style="stroke:#ff0000;stroke-width:0.07" />
  <text
     id="text212"
     font-size="4.02854"
     y="132.755"
     x="519.14801"
     style="font-size:4.02854013px;font-family:INTL_ISO_EQUAL;fill:#0000ff;stroke:#0000ff;stroke-width:0">Départ</text>
  <g
     id="g218">
    <line
       id="line214"
       y2="138.806"
       x2="516.341"
       y1="122.676"
       x1="516.341"
       style="stroke:#ff0000;stroke-width:0.07" />
    <polyline
       id="polyline216"
       points="516.34,122.68,503.83,130.74,516.34,138.81"
       style="fill:none;stroke:#ff0000;stroke-width:0.07" />
  </g>
  <path
     id="path220"
     d="m 521.9,113.9 c -138.03,-0.25 -276.07,-0.49 -430.45,5.19 -12.45,0.46 -25,0.95 -34.32,-5.19 -12.81,-8.44 -19.5,-29.44 -16.17,-44.89 5.77,-26.79 41.68,-36.92 71.96,-40.8 23.62,-3.03 43.81,-2.26 64.51,-1.75 65.8,1.62 136.69,0.56 204.15,20.1 21.4,6.2 42.45,14.48 63.64,13.58 25.12,-1.07 50.44,-15.03 75.64,-15.14 25.07,-0.11 50.03,13.49 75.11,15.66 26.33,2.27 52.8,-8.04 79,-15.69 79.19,-23.13 155.97,-21.93 242.72,-18.31 26.43,1.1 53.77,2.42 70.98,21.4 7.1,7.82 12.47,18.65 11.48,28.33 -1.31,12.79 -13.7,23.58 -26.51,30.42 -23.31,12.45 -47.98,11.79 -72.6,11.19 -124.69,-3 -248.31,-4.11 -371.92,-5.22"
     inkscape:connector-curvature="0"
     style="fill:none;stroke:#969696;stroke-width:0.07;stroke-dasharray:0.4, 0.1, 0.1, 0.1" />
</svg>
